,0
combination_vector,"(1, 2, 3, 4, 5, 6, 7, 8, 9, 10, 11, 12, 13, 14, 15, 16, 17, 18, 19, 20, 21, 22, 23, 24, 25, 26, 27, 28, 29, 30, 31, 32, 33, 34, 35, 36, 37, 38, 39, 40, 41, 42, 43, 44, 45, 46, 47, 48, 49, 50, 51, 52, 53, 54, 55, 56, 57, 58, 59, 60, 61, 62, 63, 64, 65, 66, 67, 68, 69, 70, 71, 72, 73, 74, 75, 76, 77, 78, 79, 80, 81, 82, 83, 84, 85, 86, 87, 88, 89, 90, 91, 92, 93, 94, 95, 96, 97, 98, 99, 100, 101, 102, 103, 104, 105, 106, 107, 108, 109, 110, 111, 112, 113, 114, 115, 116, 117, 118, 119, 120, 121, 122, 123, 124, 125, 126, 127, 128, 129, 130, 131, 132, 133, 134, 135, 136, 137, 138, 139, 140, 141, 142, 143, 144, 145, 146, 147, 148, 149, 150, 151, 152, 153, 154, 155, 156, 157, 158, 159, 160, 161, 162, 163, 164, 165, 166, 167, 168, 169, 170, 171, 172, 173, 174, 175, 176, 177, 178, 179, 180, 181, 182, 183, 184, 185, 186, 187, 188, 189, 190, 191, 192, 193, 194, 195, 196, 197, 198, 199, 200, 201, 202, 203, 204, 205, 206, 207, 208, 209, 210, 211, 212, 213, 214, 215, 216, 217, 218, 219, 220, 221, 222, 223, 224, 225, 226, 227, 228, 229, 230, 231, 232, 233, 234, 235, 236, 237, 238, 239, 240, 241, 242, 243, 244, 245, 246, 247, 248, 249, 250, 251, 252, 253, 254, 255, 256, 257, 258, 259, 260, 261, 262, 263, 264, 265, 266, 267, 268, 269, 270, 271, 272, 273, 274, 275, 276, 277, 278, 279, 280, 281, 282, 283, 284, 285, 286, 287, 288, 289, 290, 291, 292, 293, 294, 295, 296, 297, 298, 299, 300, 301, 302, 303, 304, 305, 306, 307, 308, 309, 310, 311, 312, 313, 314, 315, 316, 317, 318, 319, 320, 321, 322, 323, 324, 325, 326, 327, 328, 329, 330, 331, 332, 333, 334, 335, 336, 337, 338, 339, 340, 341, 342, 343, 344, 345, 346, 347, 348, 349, 350, 351, 352, 353, 354, 355, 356, 357, 358, 359, 360, 361, 362, 363, 364, 365)"
period_array,"[[  0   1]
 [  1   2]
 [  2   3]
 [  3   4]
 [  4   5]
 [  5   6]
 [  6   7]
 [  7   8]
 [  8   9]
 [  9  10]
 [ 10  11]
 [ 11  12]
 [ 12  13]
 [ 13  14]
 [ 14  15]
 [ 15  16]
 [ 16  17]
 [ 17  18]
 [ 18  19]
 [ 19  20]
 [ 20  21]
 [ 21  22]
 [ 22  23]
 [ 23  24]
 [ 24  25]
 [ 25  26]
 [ 26  27]
 [ 27  28]
 [ 28  29]
 [ 29  30]
 [ 30  31]
 [ 31  32]
 [ 32  33]
 [ 33  34]
 [ 34  35]
 [ 35  36]
 [ 36  37]
 [ 37  38]
 [ 38  39]
 [ 39  40]
 [ 40  41]
 [ 41  42]
 [ 42  43]
 [ 43  44]
 [ 44  45]
 [ 45  46]
 [ 46  47]
 [ 47  48]
 [ 48  49]
 [ 49  50]
 [ 50  51]
 [ 51  52]
 [ 52  53]
 [ 53  54]
 [ 54  55]
 [ 55  56]
 [ 56  57]
 [ 57  58]
 [ 58  59]
 [ 59  60]
 [ 60  61]
 [ 61  62]
 [ 62  63]
 [ 63  64]
 [ 64  65]
 [ 65  66]
 [ 66  67]
 [ 67  68]
 [ 68  69]
 [ 69  70]
 [ 70  71]
 [ 71  72]
 [ 72  73]
 [ 73  74]
 [ 74  75]
 [ 75  76]
 [ 76  77]
 [ 77  78]
 [ 78  79]
 [ 79  80]
 [ 80  81]
 [ 81  82]
 [ 82  83]
 [ 83  84]
 [ 84  85]
 [ 85  86]
 [ 86  87]
 [ 87  88]
 [ 88  89]
 [ 89  90]
 [ 90  91]
 [ 91  92]
 [ 92  93]
 [ 93  94]
 [ 94  95]
 [ 95  96]
 [ 96  97]
 [ 97  98]
 [ 98  99]
 [ 99 100]
 [100 101]
 [101 102]
 [102 103]
 [103 104]
 [104 105]
 [105 106]
 [106 107]
 [107 108]
 [108 109]
 [109 110]
 [110 111]
 [111 112]
 [112 113]
 [113 114]
 [114 115]
 [115 116]
 [116 117]
 [117 118]
 [118 119]
 [119 120]
 [120 121]
 [121 122]
 [122 123]
 [123 124]
 [124 125]
 [125 126]
 [126 127]
 [127 128]
 [128 129]
 [129 130]
 [130 131]
 [131 132]
 [132 133]
 [133 134]
 [134 135]
 [135 136]
 [136 137]
 [137 138]
 [138 139]
 [139 140]
 [140 141]
 [141 142]
 [142 143]
 [143 144]
 [144 145]
 [145 146]
 [146 147]
 [147 148]
 [148 149]
 [149 150]
 [150 151]
 [151 152]
 [152 153]
 [153 154]
 [154 155]
 [155 156]
 [156 157]
 [157 158]
 [158 159]
 [159 160]
 [160 161]
 [161 162]
 [162 163]
 [163 164]
 [164 165]
 [165 166]
 [166 167]
 [167 168]
 [168 169]
 [169 170]
 [170 171]
 [171 172]
 [172 173]
 [173 174]
 [174 175]
 [175 176]
 [176 177]
 [177 178]
 [178 179]
 [179 180]
 [180 181]
 [181 182]
 [182 183]
 [183 184]
 [184 185]
 [185 186]
 [186 187]
 [187 188]
 [188 189]
 [189 190]
 [190 191]
 [191 192]
 [192 193]
 [193 194]
 [194 195]
 [195 196]
 [196 197]
 [197 198]
 [198 199]
 [199 200]
 [200 201]
 [201 202]
 [202 203]
 [203 204]
 [204 205]
 [205 206]
 [206 207]
 [207 208]
 [208 209]
 [209 210]
 [210 211]
 [211 212]
 [212 213]
 [213 214]
 [214 215]
 [215 216]
 [216 217]
 [217 218]
 [218 219]
 [219 220]
 [220 221]
 [221 222]
 [222 223]
 [223 224]
 [224 225]
 [225 226]
 [226 227]
 [227 228]
 [228 229]
 [229 230]
 [230 231]
 [231 232]
 [232 233]
 [233 234]
 [234 235]
 [235 236]
 [236 237]
 [237 238]
 [238 239]
 [239 240]
 [240 241]
 [241 242]
 [242 243]
 [243 244]
 [244 245]
 [245 246]
 [246 247]
 [247 248]
 [248 249]
 [249 250]
 [250 251]
 [251 252]
 [252 253]
 [253 254]
 [254 255]
 [255 256]
 [256 257]
 [257 258]
 [258 259]
 [259 260]
 [260 261]
 [261 262]
 [262 263]
 [263 264]
 [264 265]
 [265 266]
 [266 267]
 [267 268]
 [268 269]
 [269 270]
 [270 271]
 [271 272]
 [272 273]
 [273 274]
 [274 275]
 [275 276]
 [276 277]
 [277 278]
 [278 279]
 [279 280]
 [280 281]
 [281 282]
 [282 283]
 [283 284]
 [284 285]
 [285 286]
 [286 287]
 [287 288]
 [288 289]
 [289 290]
 [290 291]
 [291 292]
 [292 293]
 [293 294]
 [294 295]
 [295 296]
 [296 297]
 [297 298]
 [298 299]
 [299 300]
 [300 301]
 [301 302]
 [302 303]
 [303 304]
 [304 305]
 [305 306]
 [306 307]
 [307 308]
 [308 309]
 [309 310]
 [310 311]
 [311 312]
 [312 313]
 [313 314]
 [314 315]
 [315 316]
 [316 317]
 [317 318]
 [318 319]
 [319 320]
 [320 321]
 [321 322]
 [322 323]
 [323 324]
 [324 325]
 [325 326]
 [326 327]
 [327 328]
 [328 329]
 [329 330]
 [330 331]
 [331 332]
 [332 333]
 [333 334]
 [334 335]
 [335 336]
 [336 337]
 [337 338]
 [338 339]
 [339 340]
 [340 341]
 [341 342]
 [342 343]
 [343 344]
 [344 345]
 [345 346]
 [346 347]
 [347 348]
 [348 349]
 [349 350]
 [350 351]
 [351 352]
 [352 353]
 [353 354]
 [354 355]
 [355 356]
 [356 357]
 [357 358]
 [358 359]
 [359 360]
 [360 361]
 [361 362]
 [362 363]
 [363 364]
 [364 365]
 [365 365]]"
tilt_power_array,"[(-17, 1640.9717741196532), (-16, 1320.388359896472), (-9, 682.1923198830596), (-11, 1323.8127732066732), (-11, 1033.3009024630974), (-6, 898.7778807309313), (-15, 1510.6603005512395), (-6, 761.6123984091264), (-10, 691.3420991735716), (-5, 965.2763909845568), (-12, 1265.4917801978113), (-7, 1047.9662590840185), (-4, 937.0156540247082), (-11, 1527.4863952426451), (-14, 1758.3931867302322), (-14, 1773.8300177490328), (-13, 1768.7507991155276), (-12, 1715.0119422418825), (-12, 1574.3681343801784), (-14, 1558.2992607947722), (-12, 1654.0028960629156), (-12, 1692.6445090588022), (-12, 1638.6874157288837), (-12, 1674.0519267420502), (-11, 1564.7328166324978), (-10, 1567.4939053627218), (-11, 1306.2622349346102), (-8, 1427.5793599180806), (-9, 1038.8426829863645), (-5, 889.3176207398017), (-5, 948.0475978914828), (-8, 1661.0098219193849), (-8, 1660.0894855418755), (-8, 1665.7637016059298), (-2, 1041.1462246106128), (-2, 1286.2737865189647), (0, 547.8470260138776), (-3, 664.0715875981426), (-1, 952.678628094382), (-3, 1339.075830968735), (0, 1259.7715162758866), (-1, 1439.80127956977), (-3, 1672.3529008715336), (-3, 1718.365332298321), (-3, 1685.3492149703015), (0, 1595.0226717984135), (1, 801.845055163522), (0, 896.4367085515831), (2, 810.6573176604239), (0, 591.8487481290626), (2, 1202.8071335730003), (1, 1560.9301474425256), (1, 1614.0934729630771), (1, 1472.1251772852802), (0, 1366.8197219198191), (2, 1629.440729900559), (4, 1134.0532518263767), (4, 1192.6547791969997), (3, 1096.066216314815), (5, 1008.0181679332316), (4, 810.9517270345787), (6, 1387.6596074609547), (7, 1302.80878949725), (3, 671.2957838578509), (8, 1084.5959107550232), (8, 1261.9974356774042), (5, 806.5372028594254), (11, 1434.18969614792), (7, 811.5809371592236), (12, 1312.346012203092), (5, 798.6965126886553), (8, 994.4702445365926), (10, 1100.33868056384), (11, 967.6730281120454), (11, 1131.6626140048947), (6, 653.3347006807073), (7, 727.4299965260556), (1, 523.0177550509976), (2, 505.5288387429414), (12, 1003.6838950261732), (12, 1098.6994066931925), (18, 1516.6971797042715), (8, 600.3884174508869), (18, 1219.6346309310225), (19, 1324.748907919044), (10, 540.4575533226966), (22, 1542.580201313975), (21, 1495.331104637315), (21, 1422.873086380584), (19, 1180.5565905466271), (20, 1235.7788908926252), (13, 869.372038587634), (22, 1241.9650604096523), (25, 1374.5500074022414), (26, 1560.7879447999876), (21, 1090.258036943071), (27, 1551.5680925314923), (28, 1526.609784584832), (29, 1671.6247979016923), (29, 1540.9687591397396), (30, 1640.5317082165168), (30, 1481.4994339396317), (29, 1392.920144694855), (29, 1418.0358313830295), (29, 1372.8744700342622), (33, 1616.0806040059597), (31, 1478.7019929184094), (31, 1410.993932373738), (34, 1609.36064079901), (33, 1561.3109919711442), (23, 922.3015481549407), (32, 1405.8619911982753), (34, 1395.473502653418), (33, 1271.2235223402315), (36, 1162.058733083156), (34, 1255.910929488045), (33, 1320.987333366715), (31, 1106.5600186851188), (36, 1466.4641957983767), (39, 1604.8086143613605), (28, 917.136942831274), (33, 1193.1008910341338), (33, 1077.4833511871966), (39, 1535.7286790685412), (37, 1375.3340051140492), (39, 1068.8964824899797), (41, 1571.6889137519374), (42, 1581.991105066506), (42, 1591.6920908705097), (40, 1506.3587483725826), (42, 1590.6185377959737), (43, 1616.5831250472993), (44, 1643.8413092622995), (41, 1494.920906967137), (20, 668.1306704004177), (17, 526.8405472804379), (8, 410.41160639737245), (11, 600.5952017931093), (27, 850.7761260080135), (43, 1339.9510061589594), (45, 1657.1631233058515), (46, 1657.0696855788333), (46, 1614.5735116401547), (43, 1463.4623348603636), (41, 1347.825598602862), (47, 1676.608331769212), (48, 1681.628704891254), (47, 1671.4629795211588), (47, 1551.1183634120175), (47, 1582.942033307703), (37, 969.8986521373342), (41, 1224.0387082719135), (47, 1520.7149222100602), (48, 1590.9086661990978), (46, 1499.114480037821), (48, 1631.2516179452743), (48, 1590.9952933547315), (46, 1328.036769759798), (43, 1119.51354808694), (48, 1615.7494528567872), (14, 263.78549623272016), (31, 781.7040937379365), (49, 1603.996072759467), (49, 1568.482555626898), (49, 1570.306764417276), (49, 1538.734519129373), (50, 1734.5060807749246), (50, 1717.943417709387), (50, 1701.3546296166112), (50, 1695.661630146103), (50, 1688.4032468755745), (50, 1662.7962404804075), (50, 1704.8160405849576), (50, 1741.3522667336213), (50, 1700.6316473780714), (47, 1566.7212413531438), (47, 1428.5453663658636), (37, 951.5144152749386), (49, 1632.5987670689285), (49, 1682.0649396700544), (50, 1725.4284404537998), (46, 1481.3938481579664), (49, 1553.6782507380583), (50, 1543.1751127491254), (47, 1485.9675355519294), (46, 1417.950652266517), (48, 1631.07210412478), (48, 1687.5780975482069), (49, 1726.2264374921745), (49, 1755.1523921759344), (48, 1649.9650592092455), (45, 1392.0451732008069), (46, 1483.887827544633), (48, 1744.6415629053245), (48, 1749.489621420476), (48, 1759.2894548623826), (48, 1735.0420626466334), (48, 1733.5538039293392), (48, 1717.861455375362), (46, 1660.5259758861685), (47, 1692.5151205004072), (47, 1723.6189644899073), (46, 1712.0854544903086), (46, 1704.8825808067816), (46, 1689.0610253863013), (46, 1685.21427070063), (45, 1692.520527254158), (45, 1719.6294301091143), (45, 1696.835410154786), (45, 1736.4912955055136), (44, 1658.0203356652546), (41, 1439.2476768135853), (43, 1608.1472545477814), (39, 1286.8258491336749), (38, 1318.1495245898482), (42, 1643.7673428814942), (42, 1651.6534163458466), (41, 1634.3667114807445), (41, 1635.9872685994224), (41, 1653.5529555194178), (40, 1633.4461637340305), (39, 1556.9399788373712), (38, 1551.0488408794845), (38, 1578.450570978856), (37, 1574.3382545102995), (38, 1617.8426213431026), (-30, 0.0), (-30, 0.0), (36, 1574.2949337883203), (35, 1586.5524806670446), (33, 1420.1367750681106), (33, 1289.0167109952213), (31, 1140.0447272730762), (31, 1358.5880190487142), (34, 1621.5010487034), (19, 856.7212245525053), (16, 631.5437365168107), (8, 462.55725316499183), (10, 637.2300489658496), (31, 1535.7679596638968), (30, 1463.3506075275782), (29, 1497.463633797685), (25, 1171.45708802728), (25, 1215.1120393702597), (26, 1270.699042646279), (25, 964.4474475287732), (20, 822.8010214104162), (20, 765.9897167816227), (20, 833.2645318632342), (20, 1002.5747903231), (12, 683.3944548672139), (22, 1091.7037320285), (23, 1507.1423449378185), (23, 1545.814439218735), (23, 1547.645062649364), (21, 1427.3812499095395), (20, 1320.841325065742), (21, 1516.9040731064488), (20, 1484.4430869374346), (20, 1520.6378339770813), (18, 1232.716246871134), (10, 658.5067290879517), (16, 1106.0101971741906), (15, 894.7020304619462), (1, 382.7518265730827), (5, 631.7227817108306), (13, 1249.31109101922), (15, 1494.8622770826055), (13, 1278.361140055043), (14, 1601.9271150270297), (12, 1319.922636714707), (13, 1496.279942286811), (12, 1432.0677787855852), (12, 1621.6507989591746), (11, 1657.1972738461238), (11, 1623.446802657456), (10, 1625.0534609007022), (10, 1616.5579185289707), (9, 1599.4065583508177), (9, 1587.7629234101971), (8, 1471.0684463405398), (7, 1486.2770195438552), (6, 1210.119659079293), (4, 688.9532084519487), (6, 1298.719441411249), (4, 1240.3700640723328), (2, 1106.5160430543744), (5, 1334.9278012120835), (4, 1398.9140968654308), (3, 1469.6107110883252), (4, 1154.074937540537), (0, 411.64171201815685), (1, 643.9652339828435), (3, 1185.5630688370534), (2, 1063.9404351534813), (1, 1007.1276897033792), (-1, 805.1864392981577), (0, 1433.7323517902814), (0, 495.189597459632), (-2, 1350.202529466082), (1, 572.4536268047232), (0, 1228.5397509645625), (-5, 1038.082960368666), (0, 556.627386676502), (-2, 901.9390584297296), (-3, 1223.9296525707052), (-5, 1623.1297054900826), (-6, 1655.7920876296928), (-6, 1622.5745004200726), (-7, 1604.9597156885393), (-7, 1602.19694087659), (-5, 1041.1950928890274), (-7, 1641.9225041545665), (-8, 1659.426029433493), (-8, 1596.1325007475134), (-8, 1523.993524676119), (-9, 1489.2416603927843), (-7, 1335.0604155310366), (-1, 673.0634459664144), (-4, 1025.321591579513), (-5, 1050.196443777984), (-4, 819.0030083715367), (-7, 1025.581961665177), (-8, 1197.5424461894154), (-9, 1330.8955775686604), (-9, 1171.882652951601), (-3, 906.4564561656704), (-11, 1211.5800699755655), (-13, 1515.5013254759049), (-13, 1535.324994376191), (-10, 988.920155144684), (-6, 918.4108928887924), (-10, 1324.5543552117106), (-13, 1460.5768981541162), (-7, 1004.1179108926992), (-9, 1076.834544752898), (-10, 1002.2129464222846), (-3, 741.8472472724575), (-10, 1249.6793755542917), (-6, 832.0674986883232), (-6, 1093.9532863492984), (-8, 1143.278220800317), (0, 342.427708107144), (-10, 1053.064931412955), (-9, 904.5318727195216), (-2, 472.9932560122367), (0, 457.21563392800255), (-9, 1097.9039335305788), (-13, 887.0916879243027), (-7, 987.7125397672414), (-1, 491.2018659257831), (-9, 1135.2457025128222), (-12, 926.6301695093282), (-15, 1736.4130729359044), (-20, 1807.032799309918), (-15, 1685.2410306910087), (-19, 1840.885227621213), (-17, 1806.4142404276915), (-19, 1820.8194051384744), (-7, 808.5549053420519), (-6, 827.6512952224109), (-6, 801.3271852982489), (-6, 1004.5840341721828), (-1, 564.2784890842611), (-3, 811.5873354435199)]"
power_produced,470953.02660000994
